…
## Section 2: Check for completeness and correctness across datasets.

``` r
anti_join(bakers_df,bakes_df)
```

    ## Joining with `by = join_by(series, baker_first_name)`

    ## # A tibble: 26 × 6
    ##    series baker_age baker_occupation   hometown baker_first_name baker_last_name
    ##     <dbl>     <dbl> <chr>              <chr>    <chr>            <chr>          
    ##  1     10        28 Geography teacher  Essex    Alice            Fevronia       
    ##  2     10        24 Fashion designer   Halifax  Amelia           LeBruin        
    ##  3      9        30 Banker             London   Antony           Amourdoux      
    ##  4      9        33 Full-time parent   Bristol  Briony           Williams       
    ##  5      9        36 Full-time parent   London   Dan              Beasley-Harling
    ##  6     10        32 Support worker     Rotherh… Dan              Chambers       
    ##  7     10        36 International hea… Whitby   David            Atherton       
    ##  8     10        40 Online project ma… Leeds    Helena           Garcia         
    ##  9     10        20 Student            Durham   Henry            Bird           
    ## 10      9        33 Countryside recre… County … Imelda           McCarron       
    ## # ℹ 16 more rows
…
    ## Joining with `by = join_by(series, baker_first_name)`

    ## # A tibble: 1 × 6
    ##   series baker_age baker_occupation hometown    baker_first_name baker_last_name
    ##    <dbl>     <dbl> <chr>            <chr>       <chr>            <chr>          
    ## 1      2        41 Housewife        Ongar, Ess… Jo               Wheatley

``` r
anti_join(results_df,bakes_df)
```

    ## Joining with `by = join_by(series, episode, baker_first_name)`

    ## # A tibble: 596 × 5
    ##    series episode baker_first_name technical result
    ##     <dbl>   <dbl> <chr>                <dbl> <chr> 
    ##  1      1       2 Lea                     NA <NA>  
    ##  2      1       2 Mark                    NA <NA>  
    ##  3      1       3 Annetha                 NA <NA>  
    ##  4      1       3 Lea                     NA <NA>  
    ##  5      1       3 Louise                  NA <NA>  
    ##  6      1       3 Mark                    NA <NA>  
    ##  7      1       4 Annetha                 NA <NA>  
    ##  8      1       4 Jonathan                NA <NA>  
    ##  9      1       4 Lea                     NA <NA>  
    ## 10      1       4 Louise                  NA <NA>  
    ## # ℹ 586 more rows
…
